ISO-10303-21;
HEADER;
/* Generated by software containing ST-Developer
 * from STEP Tools, Inc. (www.steptools.com) 
 */

FILE_DESCRIPTION(
/* description */ (''),
/* implementation_level */ '2;1');

FILE_NAME(
/* name */ 
'C:\\Users\\pschwitalla\\OneDrive - igus GmbH\\Documents\\190520_Platt
form Tribocut\\01_Instant Quoting\\L\X\D6SUNGEN\\Oroox\\03_CNC calcula
tion\\40_Calculations\\Chamfers\\CHAMFER_01_angle 13\X\B0_small_v01.st
p',
/* time_stamp */ '2022-03-23T10:24:10+01:00',
/* author */ ('pschwitalla'),
/* organization */ ('igus GmbH'),
/* preprocessor_version */ 'ST-DEVELOPER v18.1',
/* originating_system */ 'Autodesk Inventor 2020',
/* authorisation */ '');

FILE_SCHEMA (('AUTOMOTIVE_DESIGN { 1 0 10303 214 3 1 1 }'));
ENDSEC;

DATA;
#10=MECHANICAL_DESIGN_GEOMETRIC_PRESENTATION_REPRESENTATION('',(#13),#216);
#11=SHAPE_REPRESENTATION_RELATIONSHIP('SRR','None',#223,#12);
#12=ADVANCED_BREP_SHAPE_REPRESENTATION('',(#14),#215);
#13=STYLED_ITEM('',(#232),#14);
#14=MANIFOLD_SOLID_BREP('Solid1',#128);
#15=FACE_OUTER_BOUND('',#22,.T.);
#16=FACE_OUTER_BOUND('',#23,.T.);
#17=FACE_OUTER_BOUND('',#24,.T.);
#18=FACE_OUTER_BOUND('',#25,.T.);
#19=FACE_OUTER_BOUND('',#26,.T.);
#20=FACE_OUTER_BOUND('',#27,.T.);
#21=FACE_OUTER_BOUND('',#28,.T.);
#22=EDGE_LOOP('',(#84,#85,#86,#87));
#23=EDGE_LOOP('',(#88,#89,#90,#91,#92));
#24=EDGE_LOOP('',(#93,#94,#95,#96));
#25=EDGE_LOOP('',(#97,#98,#99,#100,#101));
#26=EDGE_LOOP('',(#102,#103,#104,#105));
#27=EDGE_LOOP('',(#106,#107,#108,#109));
#28=EDGE_LOOP('',(#110,#111,#112,#113));
#29=LINE('',#184,#44);
#30=LINE('',#186,#45);
#31=LINE('',#188,#46);
#32=LINE('',#189,#47);
#33=LINE('',#192,#48);
#34=LINE('',#194,#49);
#35=LINE('',#196,#50);
#36=LINE('',#197,#51);
#37=LINE('',#200,#52);
#38=LINE('',#201,#53);
#39=LINE('',#204,#54);
#40=LINE('',#206,#55);
#41=LINE('',#207,#56);
#42=LINE('',#209,#57);
#43=LINE('',#210,#58);
#44=VECTOR('',#153,10.);
#45=VECTOR('',#154,10.);
#46=VECTOR('',#155,10.);
#47=VECTOR('',#156,10.);
#48=VECTOR('',#159,10.);
#49=VECTOR('',#160,10.);
#50=VECTOR('',#161,10.);
#51=VECTOR('',#162,10.);
#52=VECTOR('',#165,10.);
#53=VECTOR('',#166,10.);
#54=VECTOR('',#169,10.);
#55=VECTOR('',#170,10.);
#56=VECTOR('',#171,10.);
#57=VECTOR('',#174,10.);
#58=VECTOR('',#175,10.);
#59=VERTEX_POINT('',#182);
#60=VERTEX_POINT('',#183);
#61=VERTEX_POINT('',#185);
#62=VERTEX_POINT('',#187);
#63=VERTEX_POINT('',#191);
#64=VERTEX_POINT('',#193);
#65=VERTEX_POINT('',#195);
#66=VERTEX_POINT('',#199);
#67=VERTEX_POINT('',#203);
#68=VERTEX_POINT('',#205);
#69=EDGE_CURVE('',#59,#60,#29,.T.);
#70=EDGE_CURVE('',#60,#61,#30,.T.);
#71=EDGE_CURVE('',#61,#62,#31,.T.);
#72=EDGE_CURVE('',#62,#59,#32,.T.);
#73=EDGE_CURVE('',#63,#59,#33,.T.);
#74=EDGE_CURVE('',#63,#64,#34,.T.);
#75=EDGE_CURVE('',#64,#65,#35,.T.);
#76=EDGE_CURVE('',#60,#65,#36,.T.);
#77=EDGE_CURVE('',#66,#62,#37,.T.);
#78=EDGE_CURVE('',#66,#63,#38,.T.);
#79=EDGE_CURVE('',#67,#61,#39,.T.);
#80=EDGE_CURVE('',#68,#67,#40,.T.);
#81=EDGE_CURVE('',#68,#66,#41,.T.);
#82=EDGE_CURVE('',#64,#68,#42,.T.);
#83=EDGE_CURVE('',#65,#67,#43,.T.);
#84=ORIENTED_EDGE('',*,*,#69,.T.);
#85=ORIENTED_EDGE('',*,*,#70,.T.);
#86=ORIENTED_EDGE('',*,*,#71,.T.);
#87=ORIENTED_EDGE('',*,*,#72,.T.);
#88=ORIENTED_EDGE('',*,*,#69,.F.);
#89=ORIENTED_EDGE('',*,*,#73,.F.);
#90=ORIENTED_EDGE('',*,*,#74,.T.);
#91=ORIENTED_EDGE('',*,*,#75,.T.);
#92=ORIENTED_EDGE('',*,*,#76,.F.);
#93=ORIENTED_EDGE('',*,*,#72,.F.);
#94=ORIENTED_EDGE('',*,*,#77,.F.);
#95=ORIENTED_EDGE('',*,*,#78,.T.);
#96=ORIENTED_EDGE('',*,*,#73,.T.);
#97=ORIENTED_EDGE('',*,*,#71,.F.);
#98=ORIENTED_EDGE('',*,*,#79,.F.);
#99=ORIENTED_EDGE('',*,*,#80,.F.);
#100=ORIENTED_EDGE('',*,*,#81,.T.);
#101=ORIENTED_EDGE('',*,*,#77,.T.);
#102=ORIENTED_EDGE('',*,*,#82,.T.);
#103=ORIENTED_EDGE('',*,*,#80,.T.);
#104=ORIENTED_EDGE('',*,*,#83,.F.);
#105=ORIENTED_EDGE('',*,*,#75,.F.);
#106=ORIENTED_EDGE('',*,*,#70,.F.);
#107=ORIENTED_EDGE('',*,*,#76,.T.);
#108=ORIENTED_EDGE('',*,*,#83,.T.);
#109=ORIENTED_EDGE('',*,*,#79,.T.);
#110=ORIENTED_EDGE('',*,*,#74,.F.);
#111=ORIENTED_EDGE('',*,*,#78,.F.);
#112=ORIENTED_EDGE('',*,*,#81,.F.);
#113=ORIENTED_EDGE('',*,*,#82,.F.);
#114=PLANE('',#142);
#115=PLANE('',#143);
#116=PLANE('',#144);
#117=PLANE('',#145);
#118=PLANE('',#146);
#119=PLANE('',#147);
#120=PLANE('',#148);
#121=ADVANCED_FACE('',(#15),#114,.T.);
#122=ADVANCED_FACE('',(#16),#115,.T.);
#123=ADVANCED_FACE('',(#17),#116,.T.);
#124=ADVANCED_FACE('',(#18),#117,.T.);
#125=ADVANCED_FACE('',(#19),#118,.T.);
#126=ADVANCED_FACE('',(#20),#119,.T.);
#127=ADVANCED_FACE('',(#21),#120,.F.);
#128=CLOSED_SHELL('',(#121,#122,#123,#124,#125,#126,#127));
#129=DERIVED_UNIT_ELEMENT(#131,1.);
#130=DERIVED_UNIT_ELEMENT(#218,3.);
#131=(
MASS_UNIT()
NAMED_UNIT(*)
SI_UNIT($,.GRAM.)
);
#132=DERIVED_UNIT((#129,#130));
#133=MEASURE_REPRESENTATION_ITEM('density measure',
POSITIVE_RATIO_MEASURE(1.),#132);
#134=PROPERTY_DEFINITION_REPRESENTATION(#139,#136);
#135=PROPERTY_DEFINITION_REPRESENTATION(#140,#137);
#136=REPRESENTATION('material name',(#138),#215);
#137=REPRESENTATION('density',(#133),#215);
#138=DESCRIPTIVE_REPRESENTATION_ITEM('Generic','Generic');
#139=PROPERTY_DEFINITION('material property','material name',#225);
#140=PROPERTY_DEFINITION('material property','density of part',#225);
#141=AXIS2_PLACEMENT_3D('placement',#180,#149,#150);
#142=AXIS2_PLACEMENT_3D('',#181,#151,#152);
#143=AXIS2_PLACEMENT_3D('',#190,#157,#158);
#144=AXIS2_PLACEMENT_3D('',#198,#163,#164);
#145=AXIS2_PLACEMENT_3D('',#202,#167,#168);
#146=AXIS2_PLACEMENT_3D('',#208,#172,#173);
#147=AXIS2_PLACEMENT_3D('',#211,#176,#177);
#148=AXIS2_PLACEMENT_3D('',#212,#178,#179);
#149=DIRECTION('axis',(0.,0.,1.));
#150=DIRECTION('refdir',(1.,0.,0.));
#151=DIRECTION('center_axis',(0.,-0.224951054343865,0.974370064785235));
#152=DIRECTION('ref_axis',(1.,0.,0.));
#153=DIRECTION('',(-1.73082892868812E-16,0.974370064785235,0.224951054343865));
#154=DIRECTION('',(-1.,0.,0.));
#155=DIRECTION('',(2.59624339303218E-16,-0.974370064785235,-0.224951054343865));
#156=DIRECTION('',(1.,0.,0.));
#157=DIRECTION('center_axis',(1.,1.77635683940025E-16,3.94430452610506E-32));
#158=DIRECTION('ref_axis',(-1.77635683940025E-16,1.,2.22044604925031E-16));
#159=DIRECTION('',(0.,-2.22044604925031E-16,1.));
#160=DIRECTION('',(-1.77635683940025E-16,1.,2.22044604925031E-16));
#161=DIRECTION('',(0.,-2.22044604925031E-16,1.));
#162=DIRECTION('',(-1.77635683940025E-16,1.,2.22044604925031E-16));
#163=DIRECTION('center_axis',(0.,-1.,-2.22044604925031E-16));
#164=DIRECTION('ref_axis',(1.,0.,0.));
#165=DIRECTION('',(0.,-2.22044604925031E-16,1.));
#166=DIRECTION('',(1.,0.,0.));
#167=DIRECTION('center_axis',(-1.,-2.66453525910038E-16,-5.91645678915759E-32));
#168=DIRECTION('ref_axis',(2.66453525910038E-16,-1.,-2.22044604925031E-16));
#169=DIRECTION('',(2.66453525910038E-16,-1.,-2.22044604925031E-16));
#170=DIRECTION('',(0.,-2.22044604925031E-16,1.));
#171=DIRECTION('',(2.66453525910038E-16,-1.,-2.22044604925031E-16));
#172=DIRECTION('center_axis',(0.,1.,2.22044604925031E-16));
#173=DIRECTION('ref_axis',(-1.,0.,0.));
#174=DIRECTION('',(-1.,0.,0.));
#175=DIRECTION('',(-1.,0.,0.));
#176=DIRECTION('center_axis',(0.,-2.22044604925031E-16,1.));
#177=DIRECTION('ref_axis',(0.,-1.,-2.22044604925031E-16));
#178=DIRECTION('center_axis',(0.,-2.22044604925031E-16,1.));
#179=DIRECTION('ref_axis',(0.,-1.,-2.22044604925031E-16));
#180=CARTESIAN_POINT('',(0.,0.,0.));
#181=CARTESIAN_POINT('Origin',(65.1661728291922,-22.5,-64.7300343285673));
#182=CARTESIAN_POINT('',(87.6661728291922,-30.,-66.4615457620091));
#183=CARTESIAN_POINT('',(87.6661728291922,-15.,-62.9985228951256));
#184=CARTESIAN_POINT('',(87.6661728291922,-28.0623334075673,-66.0142001808097));
#185=CARTESIAN_POINT('',(57.6661728291922,-15.,-62.9985228951256));
#186=CARTESIAN_POINT('',(65.1661728291922,-15.,-62.9985228951256));
#187=CARTESIAN_POINT('',(57.6661728291922,-30.,-66.4615457620091));
#188=CARTESIAN_POINT('',(57.6661728291922,19.4075177499119,-55.0549215110827));
#189=CARTESIAN_POINT('',(65.1661728291922,-30.,-66.4615457620091));
#190=CARTESIAN_POINT('Origin',(87.6661728291922,-30.,-82.9985228951256));
#191=CARTESIAN_POINT('',(87.6661728291922,-30.,-82.9985228951256));
#192=CARTESIAN_POINT('',(87.6661728291922,-30.,-82.9985228951256));
#193=CARTESIAN_POINT('',(87.6661728291922,70.,-82.9985228951256));
#194=CARTESIAN_POINT('',(87.6661728291922,-30.,-82.9985228951256));
#195=CARTESIAN_POINT('',(87.6661728291922,70.,-62.9985228951256));
#196=CARTESIAN_POINT('',(87.6661728291922,70.,-82.9985228951256));
#197=CARTESIAN_POINT('',(87.6661728291922,-30.,-62.9985228951256));
#198=CARTESIAN_POINT('Origin',(57.6661728291922,-30.,-82.9985228951256));
#199=CARTESIAN_POINT('',(57.6661728291922,-30.,-82.9985228951256));
#200=CARTESIAN_POINT('',(57.6661728291922,-30.,-82.9985228951256));
#201=CARTESIAN_POINT('',(57.6661728291922,-30.,-82.9985228951256));
#202=CARTESIAN_POINT('Origin',(57.6661728291922,70.,-82.9985228951256));
#203=CARTESIAN_POINT('',(57.6661728291922,70.,-62.9985228951256));
#204=CARTESIAN_POINT('',(57.6661728291922,70.,-62.9985228951256));
#205=CARTESIAN_POINT('',(57.6661728291922,70.,-82.9985228951256));
#206=CARTESIAN_POINT('',(57.6661728291922,70.,-82.9985228951256));
#207=CARTESIAN_POINT('',(57.6661728291922,70.,-82.9985228951256));
#208=CARTESIAN_POINT('Origin',(87.6661728291922,70.,-82.9985228951256));
#209=CARTESIAN_POINT('',(87.6661728291922,70.,-82.9985228951256));
#210=CARTESIAN_POINT('',(87.6661728291922,70.,-62.9985228951256));
#211=CARTESIAN_POINT('Origin',(72.6661728291922,20.,-62.9985228951256));
#212=CARTESIAN_POINT('Origin',(72.6661728291922,20.,-82.9985228951256));
#213=UNCERTAINTY_MEASURE_WITH_UNIT(LENGTH_MEASURE(0.01),#217,
'DISTANCE_ACCURACY_VALUE',
'Maximum model space distance between geometric entities at asserted c
onnectivities');
#214=UNCERTAINTY_MEASURE_WITH_UNIT(LENGTH_MEASURE(0.01),#217,
'DISTANCE_ACCURACY_VALUE',
'Maximum model space distance between geometric entities at asserted c
onnectivities');
#215=(
GEOMETRIC_REPRESENTATION_CONTEXT(3)
GLOBAL_UNCERTAINTY_ASSIGNED_CONTEXT((#213))
GLOBAL_UNIT_ASSIGNED_CONTEXT((#217,#219,#220))
REPRESENTATION_CONTEXT('','3D')
);
#216=(
GEOMETRIC_REPRESENTATION_CONTEXT(3)
GLOBAL_UNCERTAINTY_ASSIGNED_CONTEXT((#214))
GLOBAL_UNIT_ASSIGNED_CONTEXT((#217,#219,#220))
REPRESENTATION_CONTEXT('','3D')
);
#217=(
LENGTH_UNIT()
NAMED_UNIT(*)
SI_UNIT(.MILLI.,.METRE.)
);
#218=(
LENGTH_UNIT()
NAMED_UNIT(*)
SI_UNIT(.CENTI.,.METRE.)
);
#219=(
NAMED_UNIT(*)
PLANE_ANGLE_UNIT()
SI_UNIT($,.RADIAN.)
);
#220=(
NAMED_UNIT(*)
SI_UNIT($,.STERADIAN.)
SOLID_ANGLE_UNIT()
);
#221=SHAPE_DEFINITION_REPRESENTATION(#222,#223);
#222=PRODUCT_DEFINITION_SHAPE('',$,#225);
#223=SHAPE_REPRESENTATION('',(#141),#215);
#224=PRODUCT_DEFINITION_CONTEXT('part definition',#229,'design');
#225=PRODUCT_DEFINITION('01_Chamfer_as Chamfer_big_v01',
'CHAMFER_01_angle 13\X\B0_small_v01',#226,#224);
#226=PRODUCT_DEFINITION_FORMATION('',$,#231);
#227=PRODUCT_RELATED_PRODUCT_CATEGORY('CHAMFER_01_angle 13\X\B0_small_
v01','CHAMFER_01_angle 13\X\B0_small_v01',(#231));
#228=APPLICATION_PROTOCOL_DEFINITION('international standard',
'automotive_design',2009,#229);
#229=APPLICATION_CONTEXT(
'Core Data for Automotive Mechanical Design Process');
#230=PRODUCT_CONTEXT('part definition',#229,'mechanical');
#231=PRODUCT('01_Chamfer_as Chamfer_big_v01',
'CHAMFER_01_angle 13\X\B0_small_v01',$,(#230));
#232=PRESENTATION_STYLE_ASSIGNMENT((#233));
#233=SURFACE_STYLE_USAGE(.BOTH.,#236);
#234=SURFACE_STYLE_RENDERING_WITH_PROPERTIES($,#240,(#235));
#235=SURFACE_STYLE_TRANSPARENT(0.);
#236=SURFACE_SIDE_STYLE('',(#237,#234));
#237=SURFACE_STYLE_FILL_AREA(#238);
#238=FILL_AREA_STYLE('',(#239));
#239=FILL_AREA_STYLE_COLOUR('',#240);
#240=COLOUR_RGB('',0.749019607843137,0.749019607843137,0.749019607843137);
ENDSEC;
END-ISO-10303-21;
