ISO-10303-21;
HEADER;
/* Generated by software containing ST-Developer
 * from STEP Tools, Inc. (www.steptools.com) 
 */

FILE_DESCRIPTION(
/* description */ (''),
/* implementation_level */ '2;1');

FILE_NAME(
/* name */ 
'C:\\Users\\pschwitalla\\OneDrive - igus GmbH\\Documents\\190520_Platt
form Tribocut\\01_Instant Quoting\\L\X\D6SUNGEN\\Oroox\\03_CNC calcula
tion\\40_Calculations\\Pockets\\01_Closed Pocket_planar floor, interna
l fillets, NO floor fillets_v01.stp',
/* time_stamp */ '2022-03-09T10:21:12+01:00',
/* author */ ('pschwitalla'),
/* organization */ ('igus GmbH'),
/* preprocessor_version */ 'ST-DEVELOPER v18.1',
/* originating_system */ 'Autodesk Inventor 2020',
/* authorisation */ '');

FILE_SCHEMA (('AUTOMOTIVE_DESIGN { 1 0 10303 214 3 1 1 }'));
ENDSEC;

DATA;
#10=MECHANICAL_DESIGN_GEOMETRIC_PRESENTATION_REPRESENTATION('',(#13),#465);
#11=SHAPE_REPRESENTATION_RELATIONSHIP('SRR','None',#472,#12);
#12=ADVANCED_BREP_SHAPE_REPRESENTATION('',(#14),#464);
#13=STYLED_ITEM('',(#481),#14);
#14=MANIFOLD_SOLID_BREP('Solid1',#273);
#15=FACE_BOUND('',#57,.T.);
#16=CIRCLE('',#289,3.);
#17=CIRCLE('',#290,3.);
#18=CIRCLE('',#293,3.);
#19=CIRCLE('',#294,3.);
#20=CIRCLE('',#297,3.);
#21=CIRCLE('',#298,3.);
#22=CIRCLE('',#301,3.);
#23=CIRCLE('',#302,3.);
#24=CYLINDRICAL_SURFACE('',#288,3.);
#25=CYLINDRICAL_SURFACE('',#292,3.);
#26=CYLINDRICAL_SURFACE('',#296,3.);
#27=CYLINDRICAL_SURFACE('',#300,3.);
#28=FACE_OUTER_BOUND('',#43,.T.);
#29=FACE_OUTER_BOUND('',#44,.T.);
#30=FACE_OUTER_BOUND('',#45,.T.);
#31=FACE_OUTER_BOUND('',#46,.T.);
#32=FACE_OUTER_BOUND('',#47,.T.);
#33=FACE_OUTER_BOUND('',#48,.T.);
#34=FACE_OUTER_BOUND('',#49,.T.);
#35=FACE_OUTER_BOUND('',#50,.T.);
#36=FACE_OUTER_BOUND('',#51,.T.);
#37=FACE_OUTER_BOUND('',#52,.T.);
#38=FACE_OUTER_BOUND('',#53,.T.);
#39=FACE_OUTER_BOUND('',#54,.T.);
#40=FACE_OUTER_BOUND('',#55,.T.);
#41=FACE_OUTER_BOUND('',#56,.T.);
#42=FACE_OUTER_BOUND('',#58,.T.);
#43=EDGE_LOOP('',(#175,#176,#177,#178));
#44=EDGE_LOOP('',(#179,#180,#181,#182));
#45=EDGE_LOOP('',(#183,#184,#185,#186));
#46=EDGE_LOOP('',(#187,#188,#189,#190));
#47=EDGE_LOOP('',(#191,#192,#193,#194));
#48=EDGE_LOOP('',(#195,#196,#197,#198));
#49=EDGE_LOOP('',(#199,#200,#201,#202));
#50=EDGE_LOOP('',(#203,#204,#205,#206));
#51=EDGE_LOOP('',(#207,#208,#209,#210,#211,#212,#213,#214));
#52=EDGE_LOOP('',(#215,#216,#217,#218));
#53=EDGE_LOOP('',(#219,#220,#221,#222));
#54=EDGE_LOOP('',(#223,#224,#225,#226));
#55=EDGE_LOOP('',(#227,#228,#229,#230));
#56=EDGE_LOOP('',(#231,#232,#233,#234));
#57=EDGE_LOOP('',(#235,#236,#237,#238,#239,#240,#241,#242));
#58=EDGE_LOOP('',(#243,#244,#245,#246));
#59=LINE('',#390,#87);
#60=LINE('',#392,#88);
#61=LINE('',#394,#89);
#62=LINE('',#395,#90);
#63=LINE('',#400,#91);
#64=LINE('',#404,#92);
#65=LINE('',#406,#93);
#66=LINE('',#407,#94);
#67=LINE('',#412,#95);
#68=LINE('',#416,#96);
#69=LINE('',#418,#97);
#70=LINE('',#419,#98);
#71=LINE('',#424,#99);
#72=LINE('',#428,#100);
#73=LINE('',#430,#101);
#74=LINE('',#431,#102);
#75=LINE('',#439,#103);
#76=LINE('',#441,#104);
#77=LINE('',#443,#105);
#78=LINE('',#444,#106);
#79=LINE('',#447,#107);
#80=LINE('',#449,#108);
#81=LINE('',#450,#109);
#82=LINE('',#453,#110);
#83=LINE('',#455,#111);
#84=LINE('',#456,#112);
#85=LINE('',#458,#113);
#86=LINE('',#459,#114);
#87=VECTOR('',#314,10.);
#88=VECTOR('',#315,10.);
#89=VECTOR('',#316,10.);
#90=VECTOR('',#317,10.);
#91=VECTOR('',#322,10.);
#92=VECTOR('',#327,10.);
#93=VECTOR('',#328,10.);
#94=VECTOR('',#329,10.);
#95=VECTOR('',#334,10.);
#96=VECTOR('',#339,10.);
#97=VECTOR('',#340,10.);
#98=VECTOR('',#341,10.);
#99=VECTOR('',#346,10.);
#100=VECTOR('',#351,10.);
#101=VECTOR('',#352,10.);
#102=VECTOR('',#353,10.);
#103=VECTOR('',#364,10.);
#104=VECTOR('',#365,10.);
#105=VECTOR('',#366,10.);
#106=VECTOR('',#367,10.);
#107=VECTOR('',#370,10.);
#108=VECTOR('',#371,10.);
#109=VECTOR('',#372,10.);
#110=VECTOR('',#375,10.);
#111=VECTOR('',#376,10.);
#112=VECTOR('',#377,10.);
#113=VECTOR('',#380,10.);
#114=VECTOR('',#381,10.);
#115=VERTEX_POINT('',#388);
#116=VERTEX_POINT('',#389);
#117=VERTEX_POINT('',#391);
#118=VERTEX_POINT('',#393);
#119=VERTEX_POINT('',#397);
#120=VERTEX_POINT('',#399);
#121=VERTEX_POINT('',#403);
#122=VERTEX_POINT('',#405);
#123=VERTEX_POINT('',#409);
#124=VERTEX_POINT('',#411);
#125=VERTEX_POINT('',#415);
#126=VERTEX_POINT('',#417);
#127=VERTEX_POINT('',#421);
#128=VERTEX_POINT('',#423);
#129=VERTEX_POINT('',#427);
#130=VERTEX_POINT('',#429);
#131=VERTEX_POINT('',#437);
#132=VERTEX_POINT('',#438);
#133=VERTEX_POINT('',#440);
#134=VERTEX_POINT('',#442);
#135=VERTEX_POINT('',#446);
#136=VERTEX_POINT('',#448);
#137=VERTEX_POINT('',#452);
#138=VERTEX_POINT('',#454);
#139=EDGE_CURVE('',#115,#116,#59,.T.);
#140=EDGE_CURVE('',#115,#117,#60,.T.);
#141=EDGE_CURVE('',#117,#118,#61,.T.);
#142=EDGE_CURVE('',#116,#118,#62,.T.);
#143=EDGE_CURVE('',#119,#115,#16,.T.);
#144=EDGE_CURVE('',#119,#120,#63,.T.);
#145=EDGE_CURVE('',#120,#117,#17,.T.);
#146=EDGE_CURVE('',#121,#119,#64,.T.);
#147=EDGE_CURVE('',#121,#122,#65,.T.);
#148=EDGE_CURVE('',#122,#120,#66,.T.);
#149=EDGE_CURVE('',#123,#121,#18,.T.);
#150=EDGE_CURVE('',#123,#124,#67,.T.);
#151=EDGE_CURVE('',#124,#122,#19,.T.);
#152=EDGE_CURVE('',#125,#123,#68,.T.);
#153=EDGE_CURVE('',#125,#126,#69,.T.);
#154=EDGE_CURVE('',#126,#124,#70,.T.);
#155=EDGE_CURVE('',#127,#125,#20,.T.);
#156=EDGE_CURVE('',#127,#128,#71,.T.);
#157=EDGE_CURVE('',#128,#126,#21,.T.);
#158=EDGE_CURVE('',#129,#127,#72,.T.);
#159=EDGE_CURVE('',#129,#130,#73,.T.);
#160=EDGE_CURVE('',#130,#128,#74,.T.);
#161=EDGE_CURVE('',#116,#129,#22,.T.);
#162=EDGE_CURVE('',#118,#130,#23,.T.);
#163=EDGE_CURVE('',#131,#132,#75,.T.);
#164=EDGE_CURVE('',#132,#133,#76,.T.);
#165=EDGE_CURVE('',#134,#133,#77,.T.);
#166=EDGE_CURVE('',#131,#134,#78,.T.);
#167=EDGE_CURVE('',#135,#131,#79,.T.);
#168=EDGE_CURVE('',#136,#134,#80,.T.);
#169=EDGE_CURVE('',#135,#136,#81,.T.);
#170=EDGE_CURVE('',#137,#135,#82,.T.);
#171=EDGE_CURVE('',#138,#136,#83,.T.);
#172=EDGE_CURVE('',#137,#138,#84,.T.);
#173=EDGE_CURVE('',#132,#137,#85,.T.);
#174=EDGE_CURVE('',#133,#138,#86,.T.);
#175=ORIENTED_EDGE('',*,*,#139,.F.);
#176=ORIENTED_EDGE('',*,*,#140,.T.);
#177=ORIENTED_EDGE('',*,*,#141,.T.);
#178=ORIENTED_EDGE('',*,*,#142,.F.);
#179=ORIENTED_EDGE('',*,*,#143,.F.);
#180=ORIENTED_EDGE('',*,*,#144,.T.);
#181=ORIENTED_EDGE('',*,*,#145,.T.);
#182=ORIENTED_EDGE('',*,*,#140,.F.);
#183=ORIENTED_EDGE('',*,*,#146,.F.);
#184=ORIENTED_EDGE('',*,*,#147,.T.);
#185=ORIENTED_EDGE('',*,*,#148,.T.);
#186=ORIENTED_EDGE('',*,*,#144,.F.);
#187=ORIENTED_EDGE('',*,*,#149,.F.);
#188=ORIENTED_EDGE('',*,*,#150,.T.);
#189=ORIENTED_EDGE('',*,*,#151,.T.);
#190=ORIENTED_EDGE('',*,*,#147,.F.);
#191=ORIENTED_EDGE('',*,*,#152,.F.);
#192=ORIENTED_EDGE('',*,*,#153,.T.);
#193=ORIENTED_EDGE('',*,*,#154,.T.);
#194=ORIENTED_EDGE('',*,*,#150,.F.);
#195=ORIENTED_EDGE('',*,*,#155,.F.);
#196=ORIENTED_EDGE('',*,*,#156,.T.);
#197=ORIENTED_EDGE('',*,*,#157,.T.);
#198=ORIENTED_EDGE('',*,*,#153,.F.);
#199=ORIENTED_EDGE('',*,*,#158,.F.);
#200=ORIENTED_EDGE('',*,*,#159,.T.);
#201=ORIENTED_EDGE('',*,*,#160,.T.);
#202=ORIENTED_EDGE('',*,*,#156,.F.);
#203=ORIENTED_EDGE('',*,*,#161,.F.);
#204=ORIENTED_EDGE('',*,*,#142,.T.);
#205=ORIENTED_EDGE('',*,*,#162,.T.);
#206=ORIENTED_EDGE('',*,*,#159,.F.);
#207=ORIENTED_EDGE('',*,*,#162,.F.);
#208=ORIENTED_EDGE('',*,*,#141,.F.);
#209=ORIENTED_EDGE('',*,*,#145,.F.);
#210=ORIENTED_EDGE('',*,*,#148,.F.);
#211=ORIENTED_EDGE('',*,*,#151,.F.);
#212=ORIENTED_EDGE('',*,*,#154,.F.);
#213=ORIENTED_EDGE('',*,*,#157,.F.);
#214=ORIENTED_EDGE('',*,*,#160,.F.);
#215=ORIENTED_EDGE('',*,*,#163,.T.);
#216=ORIENTED_EDGE('',*,*,#164,.T.);
#217=ORIENTED_EDGE('',*,*,#165,.F.);
#218=ORIENTED_EDGE('',*,*,#166,.F.);
#219=ORIENTED_EDGE('',*,*,#167,.T.);
#220=ORIENTED_EDGE('',*,*,#166,.T.);
#221=ORIENTED_EDGE('',*,*,#168,.F.);
#222=ORIENTED_EDGE('',*,*,#169,.F.);
#223=ORIENTED_EDGE('',*,*,#170,.T.);
#224=ORIENTED_EDGE('',*,*,#169,.T.);
#225=ORIENTED_EDGE('',*,*,#171,.F.);
#226=ORIENTED_EDGE('',*,*,#172,.F.);
#227=ORIENTED_EDGE('',*,*,#173,.T.);
#228=ORIENTED_EDGE('',*,*,#172,.T.);
#229=ORIENTED_EDGE('',*,*,#174,.F.);
#230=ORIENTED_EDGE('',*,*,#164,.F.);
#231=ORIENTED_EDGE('',*,*,#174,.T.);
#232=ORIENTED_EDGE('',*,*,#171,.T.);
#233=ORIENTED_EDGE('',*,*,#168,.T.);
#234=ORIENTED_EDGE('',*,*,#165,.T.);
#235=ORIENTED_EDGE('',*,*,#139,.T.);
#236=ORIENTED_EDGE('',*,*,#161,.T.);
#237=ORIENTED_EDGE('',*,*,#158,.T.);
#238=ORIENTED_EDGE('',*,*,#155,.T.);
#239=ORIENTED_EDGE('',*,*,#152,.T.);
#240=ORIENTED_EDGE('',*,*,#149,.T.);
#241=ORIENTED_EDGE('',*,*,#146,.T.);
#242=ORIENTED_EDGE('',*,*,#143,.T.);
#243=ORIENTED_EDGE('',*,*,#173,.F.);
#244=ORIENTED_EDGE('',*,*,#163,.F.);
#245=ORIENTED_EDGE('',*,*,#167,.F.);
#246=ORIENTED_EDGE('',*,*,#170,.F.);
#247=PLANE('',#287);
#248=PLANE('',#291);
#249=PLANE('',#295);
#250=PLANE('',#299);
#251=PLANE('',#303);
#252=PLANE('',#304);
#253=PLANE('',#305);
#254=PLANE('',#306);
#255=PLANE('',#307);
#256=PLANE('',#308);
#257=PLANE('',#309);
#258=ADVANCED_FACE('',(#28),#247,.F.);
#259=ADVANCED_FACE('',(#29),#24,.F.);
#260=ADVANCED_FACE('',(#30),#248,.F.);
#261=ADVANCED_FACE('',(#31),#25,.F.);
#262=ADVANCED_FACE('',(#32),#249,.F.);
#263=ADVANCED_FACE('',(#33),#26,.F.);
#264=ADVANCED_FACE('',(#34),#250,.F.);
#265=ADVANCED_FACE('',(#35),#27,.F.);
#266=ADVANCED_FACE('',(#36),#251,.T.);
#267=ADVANCED_FACE('',(#37),#252,.T.);
#268=ADVANCED_FACE('',(#38),#253,.T.);
#269=ADVANCED_FACE('',(#39),#254,.T.);
#270=ADVANCED_FACE('',(#40),#255,.T.);
#271=ADVANCED_FACE('',(#41,#15),#256,.T.);
#272=ADVANCED_FACE('',(#42),#257,.F.);
#273=CLOSED_SHELL('',(#258,#259,#260,#261,#262,#263,#264,#265,#266,#267,
#268,#269,#270,#271,#272));
#274=DERIVED_UNIT_ELEMENT(#276,1.);
#275=DERIVED_UNIT_ELEMENT(#467,3.);
#276=(
MASS_UNIT()
NAMED_UNIT(*)
SI_UNIT($,.GRAM.)
);
#277=DERIVED_UNIT((#274,#275));
#278=MEASURE_REPRESENTATION_ITEM('density measure',
POSITIVE_RATIO_MEASURE(1.),#277);
#279=PROPERTY_DEFINITION_REPRESENTATION(#284,#281);
#280=PROPERTY_DEFINITION_REPRESENTATION(#285,#282);
#281=REPRESENTATION('material name',(#283),#464);
#282=REPRESENTATION('density',(#278),#464);
#283=DESCRIPTIVE_REPRESENTATION_ITEM('Generic','Generic');
#284=PROPERTY_DEFINITION('material property','material name',#474);
#285=PROPERTY_DEFINITION('material property','density of part',#474);
#286=AXIS2_PLACEMENT_3D('placement',#386,#310,#311);
#287=AXIS2_PLACEMENT_3D('',#387,#312,#313);
#288=AXIS2_PLACEMENT_3D('',#396,#318,#319);
#289=AXIS2_PLACEMENT_3D('',#398,#320,#321);
#290=AXIS2_PLACEMENT_3D('',#401,#323,#324);
#291=AXIS2_PLACEMENT_3D('',#402,#325,#326);
#292=AXIS2_PLACEMENT_3D('',#408,#330,#331);
#293=AXIS2_PLACEMENT_3D('',#410,#332,#333);
#294=AXIS2_PLACEMENT_3D('',#413,#335,#336);
#295=AXIS2_PLACEMENT_3D('',#414,#337,#338);
#296=AXIS2_PLACEMENT_3D('',#420,#342,#343);
#297=AXIS2_PLACEMENT_3D('',#422,#344,#345);
#298=AXIS2_PLACEMENT_3D('',#425,#347,#348);
#299=AXIS2_PLACEMENT_3D('',#426,#349,#350);
#300=AXIS2_PLACEMENT_3D('',#432,#354,#355);
#301=AXIS2_PLACEMENT_3D('',#433,#356,#357);
#302=AXIS2_PLACEMENT_3D('',#434,#358,#359);
#303=AXIS2_PLACEMENT_3D('',#435,#360,#361);
#304=AXIS2_PLACEMENT_3D('',#436,#362,#363);
#305=AXIS2_PLACEMENT_3D('',#445,#368,#369);
#306=AXIS2_PLACEMENT_3D('',#451,#373,#374);
#307=AXIS2_PLACEMENT_3D('',#457,#378,#379);
#308=AXIS2_PLACEMENT_3D('',#460,#382,#383);
#309=AXIS2_PLACEMENT_3D('',#461,#384,#385);
#310=DIRECTION('axis',(0.,0.,1.));
#311=DIRECTION('refdir',(1.,0.,0.));
#312=DIRECTION('center_axis',(1.,1.80036166155431E-16,3.99760593861999E-32));
#313=DIRECTION('ref_axis',(1.80036166155431E-16,-1.,-2.22044604925031E-16));
#314=DIRECTION('',(1.80036166155431E-16,-1.,-2.22044604925031E-16));
#315=DIRECTION('',(0.,2.22044604925031E-16,-1.));
#316=DIRECTION('',(1.80036166155431E-16,-1.,-2.22044604925031E-16));
#317=DIRECTION('',(0.,2.22044604925031E-16,-1.));
#318=DIRECTION('center_axis',(0.,2.22044604925031E-16,-1.));
#319=DIRECTION('ref_axis',(1.,0.,0.));
#320=DIRECTION('center_axis',(0.,2.22044604925031E-16,-1.));
#321=DIRECTION('ref_axis',(1.,0.,0.));
#322=DIRECTION('',(0.,2.22044604925031E-16,-1.));
#323=DIRECTION('center_axis',(0.,2.22044604925031E-16,-1.));
#324=DIRECTION('ref_axis',(1.,0.,0.));
#325=DIRECTION('center_axis',(0.,1.,2.22044604925031E-16));
#326=DIRECTION('ref_axis',(1.,0.,0.));
#327=DIRECTION('',(1.,0.,0.));
#328=DIRECTION('',(0.,2.22044604925031E-16,-1.));
#329=DIRECTION('',(1.,0.,0.));
#330=DIRECTION('center_axis',(0.,2.22044604925031E-16,-1.));
#331=DIRECTION('ref_axis',(0.,1.,2.22044604925031E-16));
#332=DIRECTION('center_axis',(0.,2.22044604925031E-16,-1.));
#333=DIRECTION('ref_axis',(0.,1.,2.22044604925031E-16));
#334=DIRECTION('',(0.,2.22044604925031E-16,-1.));
#335=DIRECTION('center_axis',(0.,2.22044604925031E-16,-1.));
#336=DIRECTION('ref_axis',(0.,1.,2.22044604925031E-16));
#337=DIRECTION('center_axis',(-1.,-3.00060276925718E-16,-6.66267656436665E-32));
#338=DIRECTION('ref_axis',(-3.00060276925718E-16,1.,2.22044604925031E-16));
#339=DIRECTION('',(-3.00060276925718E-16,1.,2.22044604925031E-16));
#340=DIRECTION('',(0.,2.22044604925031E-16,-1.));
#341=DIRECTION('',(-3.00060276925718E-16,1.,2.22044604925031E-16));
#342=DIRECTION('center_axis',(0.,2.22044604925031E-16,-1.));
#343=DIRECTION('ref_axis',(-1.,-3.00685402502647E-16,-6.67655714054241E-32));
#344=DIRECTION('center_axis',(0.,2.22044604925031E-16,-1.));
#345=DIRECTION('ref_axis',(-1.,-3.00685402502647E-16,-6.67655714054241E-32));
#346=DIRECTION('',(0.,2.22044604925031E-16,-1.));
#347=DIRECTION('center_axis',(0.,2.22044604925031E-16,-1.));
#348=DIRECTION('ref_axis',(-1.,-3.00685402502647E-16,-6.67655714054241E-32));
#349=DIRECTION('center_axis',(-1.26161707343768E-17,-1.,-2.22044604925031E-16));
#350=DIRECTION('ref_axis',(-1.,1.26161707343768E-17,2.80135264638143E-33));
#351=DIRECTION('',(-1.,1.26161707343768E-17,2.80135264638143E-33));
#352=DIRECTION('',(0.,2.22044604925031E-16,-1.));
#353=DIRECTION('',(-1.,1.26161707343768E-17,2.80135264638143E-33));
#354=DIRECTION('center_axis',(0.,2.22044604925031E-16,-1.));
#355=DIRECTION('ref_axis',(0.,-1.,-2.22044604925031E-16));
#356=DIRECTION('center_axis',(0.,2.22044604925031E-16,-1.));
#357=DIRECTION('ref_axis',(0.,-1.,-2.22044604925031E-16));
#358=DIRECTION('center_axis',(0.,2.22044604925031E-16,-1.));
#359=DIRECTION('ref_axis',(0.,-1.,-2.22044604925031E-16));
#360=DIRECTION('center_axis',(0.,-2.22044604925031E-16,1.));
#361=DIRECTION('ref_axis',(0.,-1.,-2.22044604925031E-16));
#362=DIRECTION('center_axis',(2.368475785867E-16,-1.,-2.22044604925031E-16));
#363=DIRECTION('ref_axis',(1.,2.368475785867E-16,5.25907270147341E-32));
#364=DIRECTION('',(1.,2.368475785867E-16,5.25907270147341E-32));
#365=DIRECTION('',(0.,-2.22044604925031E-16,1.));
#366=DIRECTION('',(1.,2.368475785867E-16,5.25907270147341E-32));
#367=DIRECTION('',(0.,-2.22044604925031E-16,1.));
#368=DIRECTION('center_axis',(-1.,0.,0.));
#369=DIRECTION('ref_axis',(0.,-1.,-2.22044604925031E-16));
#370=DIRECTION('',(0.,-1.,-2.22044604925031E-16));
#371=DIRECTION('',(0.,-1.,-2.22044604925031E-16));
#372=DIRECTION('',(0.,-2.22044604925031E-16,1.));
#373=DIRECTION('center_axis',(-2.368475785867E-16,1.,2.22044604925031E-16));
#374=DIRECTION('ref_axis',(-1.,-2.368475785867E-16,-5.25907270147341E-32));
#375=DIRECTION('',(-1.,-2.368475785867E-16,-5.25907270147341E-32));
#376=DIRECTION('',(-1.,-2.368475785867E-16,-5.25907270147341E-32));
#377=DIRECTION('',(0.,-2.22044604925031E-16,1.));
#378=DIRECTION('center_axis',(1.,2.66453525910038E-16,5.91645678915759E-32));
#379=DIRECTION('ref_axis',(-2.66453525910038E-16,1.,2.22044604925031E-16));
#380=DIRECTION('',(-2.66453525910038E-16,1.,2.22044604925031E-16));
#381=DIRECTION('',(-2.66453525910038E-16,1.,2.22044604925031E-16));
#382=DIRECTION('center_axis',(0.,-2.22044604925031E-16,1.));
#383=DIRECTION('ref_axis',(0.,-1.,-2.22044604925031E-16));
#384=DIRECTION('center_axis',(0.,-2.22044604925031E-16,1.));
#385=DIRECTION('ref_axis',(0.,-1.,-2.22044604925031E-16));
#386=CARTESIAN_POINT('',(0.,0.,0.));
#387=CARTESIAN_POINT('Origin',(31.7692244190269,60.5736308926134,22.0014771048744));
#388=CARTESIAN_POINT('',(31.7692244190269,60.5736308926134,22.0014771048744));
#389=CARTESIAN_POINT('',(31.7692244190269,-13.4263691073866,22.0014771048744));
#390=CARTESIAN_POINT('',(31.7692244190269,30.2868154463067,22.0014771048744));
#391=CARTESIAN_POINT('',(31.7692244190269,60.5736308926134,7.00147710487444));
#392=CARTESIAN_POINT('',(31.7692244190269,60.5736308926134,22.0014771048744));
#393=CARTESIAN_POINT('',(31.7692244190269,-13.4263691073866,7.00147710487442));
#394=CARTESIAN_POINT('',(31.7692244190269,-13.4263691073866,7.00147710487442));
#395=CARTESIAN_POINT('',(31.7692244190269,-13.4263691073866,22.0014771048744));
#396=CARTESIAN_POINT('Origin',(28.7692244190269,60.5736308926134,22.0014771048744));
#397=CARTESIAN_POINT('',(28.7692244190269,63.5736308926134,22.0014771048744));
#398=CARTESIAN_POINT('Origin',(28.7692244190269,60.5736308926134,22.0014771048744));
#399=CARTESIAN_POINT('',(28.7692244190269,63.5736308926134,7.00147710487444));
#400=CARTESIAN_POINT('',(28.7692244190269,63.5736308926134,22.0014771048744));
#401=CARTESIAN_POINT('Origin',(28.7692244190269,60.5736308926134,7.00147710487444));
#402=CARTESIAN_POINT('Origin',(-15.2307755809731,63.5736308926134,22.0014771048744));
#403=CARTESIAN_POINT('',(-15.2307755809731,63.5736308926134,22.0014771048744));
#404=CARTESIAN_POINT('',(-1.28230137589045,63.5736308926134,22.0014771048744));
#405=CARTESIAN_POINT('',(-15.2307755809731,63.5736308926134,7.00147710487444));
#406=CARTESIAN_POINT('',(-15.2307755809731,63.5736308926134,22.0014771048744));
#407=CARTESIAN_POINT('',(28.7692244190269,63.5736308926134,7.00147710487444));
#408=CARTESIAN_POINT('Origin',(-15.2307755809731,60.5736308926134,22.0014771048744));
#409=CARTESIAN_POINT('',(-18.2307755809731,60.5736308926134,22.0014771048744));
#410=CARTESIAN_POINT('Origin',(-15.2307755809731,60.5736308926134,22.0014771048744));
#411=CARTESIAN_POINT('',(-18.2307755809731,60.5736308926134,7.00147710487444));
#412=CARTESIAN_POINT('',(-18.2307755809731,60.5736308926134,22.0014771048744));
#413=CARTESIAN_POINT('Origin',(-15.2307755809731,60.5736308926134,7.00147710487444));
#414=CARTESIAN_POINT('Origin',(-18.2307755809731,-13.4263691073866,22.0014771048744));
#415=CARTESIAN_POINT('',(-18.2307755809731,-13.4263691073866,22.0014771048744));
#416=CARTESIAN_POINT('',(-18.2307755809731,-6.7131845536933,22.0014771048744));
#417=CARTESIAN_POINT('',(-18.2307755809731,-13.4263691073866,7.00147710487442));
#418=CARTESIAN_POINT('',(-18.2307755809731,-13.4263691073866,22.0014771048744));
#419=CARTESIAN_POINT('',(-18.2307755809731,60.5736308926134,7.00147710487444));
#420=CARTESIAN_POINT('Origin',(-15.2307755809731,-13.4263691073866,22.0014771048744));
#421=CARTESIAN_POINT('',(-15.2307755809731,-16.4263691073866,22.0014771048744));
#422=CARTESIAN_POINT('Origin',(-15.2307755809731,-13.4263691073866,22.0014771048744));
#423=CARTESIAN_POINT('',(-15.2307755809731,-16.4263691073866,7.00147710487442));
#424=CARTESIAN_POINT('',(-15.2307755809731,-16.4263691073866,22.0014771048744));
#425=CARTESIAN_POINT('Origin',(-15.2307755809731,-13.4263691073866,7.00147710487442));
#426=CARTESIAN_POINT('Origin',(28.7692244190269,-16.4263691073866,22.0014771048744));
#427=CARTESIAN_POINT('',(28.7692244190269,-16.4263691073866,22.0014771048744));
#428=CARTESIAN_POINT('',(20.7176986241096,-16.4263691073866,22.0014771048744));
#429=CARTESIAN_POINT('',(28.7692244190269,-16.4263691073866,7.00147710487442));
#430=CARTESIAN_POINT('',(28.7692244190269,-16.4263691073866,22.0014771048744));
#431=CARTESIAN_POINT('',(-15.2307755809731,-16.4263691073866,7.00147710487442));
#432=CARTESIAN_POINT('Origin',(28.7692244190269,-13.4263691073866,22.0014771048744));
#433=CARTESIAN_POINT('Origin',(28.7692244190269,-13.4263691073866,22.0014771048744));
#434=CARTESIAN_POINT('Origin',(28.7692244190269,-13.4263691073866,7.00147710487442));
#435=CARTESIAN_POINT('Origin',(6.76922441902692,23.5736308926134,7.00147710487443));
#436=CARTESIAN_POINT('Origin',(-62.3338271708079,-100.,-12.9985228951256));
#437=CARTESIAN_POINT('',(-62.3338271708079,-100.,-12.9985228951256));
#438=CARTESIAN_POINT('',(87.6661728291922,-100.,-12.9985228951256));
#439=CARTESIAN_POINT('',(-62.3338271708079,-100.,-12.9985228951256));
#440=CARTESIAN_POINT('',(87.6661728291922,-100.,22.0014771048744));
#441=CARTESIAN_POINT('',(87.6661728291922,-100.,-12.9985228951256));
#442=CARTESIAN_POINT('',(-62.3338271708079,-100.,22.0014771048744));
#443=CARTESIAN_POINT('',(-62.3338271708079,-100.,22.0014771048744));
#444=CARTESIAN_POINT('',(-62.3338271708079,-100.,-12.9985228951256));
#445=CARTESIAN_POINT('Origin',(-62.3338271708079,100.,-12.9985228951256));
#446=CARTESIAN_POINT('',(-62.3338271708079,100.,-12.9985228951256));
#447=CARTESIAN_POINT('',(-62.3338271708079,100.,-12.9985228951256));
#448=CARTESIAN_POINT('',(-62.3338271708079,100.,22.0014771048745));
#449=CARTESIAN_POINT('',(-62.3338271708079,100.,22.0014771048745));
#450=CARTESIAN_POINT('',(-62.3338271708079,100.,-12.9985228951256));
#451=CARTESIAN_POINT('Origin',(87.6661728291922,100.,-12.9985228951256));
#452=CARTESIAN_POINT('',(87.6661728291922,100.,-12.9985228951256));
#453=CARTESIAN_POINT('',(87.6661728291922,100.,-12.9985228951256));
#454=CARTESIAN_POINT('',(87.6661728291922,100.,22.0014771048745));
#455=CARTESIAN_POINT('',(87.6661728291922,100.,22.0014771048745));
#456=CARTESIAN_POINT('',(87.6661728291922,100.,-12.9985228951256));
#457=CARTESIAN_POINT('Origin',(87.6661728291922,-100.,-12.9985228951256));
#458=CARTESIAN_POINT('',(87.6661728291922,-100.,-12.9985228951256));
#459=CARTESIAN_POINT('',(87.6661728291922,-100.,22.0014771048744));
#460=CARTESIAN_POINT('Origin',(12.6661728291922,-8.88178419700125E-15,22.0014771048744));
#461=CARTESIAN_POINT('Origin',(12.6661728291922,-2.22044604925031E-15,-12.9985228951256));
#462=UNCERTAINTY_MEASURE_WITH_UNIT(LENGTH_MEASURE(0.01),#466,
'DISTANCE_ACCURACY_VALUE',
'Maximum model space distance between geometric entities at asserted c
onnectivities');
#463=UNCERTAINTY_MEASURE_WITH_UNIT(LENGTH_MEASURE(0.01),#466,
'DISTANCE_ACCURACY_VALUE',
'Maximum model space distance between geometric entities at asserted c
onnectivities');
#464=(
GEOMETRIC_REPRESENTATION_CONTEXT(3)
GLOBAL_UNCERTAINTY_ASSIGNED_CONTEXT((#462))
GLOBAL_UNIT_ASSIGNED_CONTEXT((#466,#468,#469))
REPRESENTATION_CONTEXT('','3D')
);
#465=(
GEOMETRIC_REPRESENTATION_CONTEXT(3)
GLOBAL_UNCERTAINTY_ASSIGNED_CONTEXT((#463))
GLOBAL_UNIT_ASSIGNED_CONTEXT((#466,#468,#469))
REPRESENTATION_CONTEXT('','3D')
);
#466=(
LENGTH_UNIT()
NAMED_UNIT(*)
SI_UNIT(.MILLI.,.METRE.)
);
#467=(
LENGTH_UNIT()
NAMED_UNIT(*)
SI_UNIT(.CENTI.,.METRE.)
);
#468=(
NAMED_UNIT(*)
PLANE_ANGLE_UNIT()
SI_UNIT($,.RADIAN.)
);
#469=(
NAMED_UNIT(*)
SI_UNIT($,.STERADIAN.)
SOLID_ANGLE_UNIT()
);
#470=SHAPE_DEFINITION_REPRESENTATION(#471,#472);
#471=PRODUCT_DEFINITION_SHAPE('',$,#474);
#472=SHAPE_REPRESENTATION('',(#286),#464);
#473=PRODUCT_DEFINITION_CONTEXT('part definition',#478,'design');
#474=PRODUCT_DEFINITION('Pocket_v01',
'01_Closed Pocket_planar floor, internal fillets, NO floor fillets_v01',
#475,#473);
#475=PRODUCT_DEFINITION_FORMATION('',$,#480);
#476=PRODUCT_RELATED_PRODUCT_CATEGORY(
'01_Closed Pocket_planar floor, internal fillets, NO floor fillets_v01',
'01_Closed Pocket_planar floor, internal fillets, NO floor fillets_v01',
(#480));
#477=APPLICATION_PROTOCOL_DEFINITION('international standard',
'automotive_design',2009,#478);
#478=APPLICATION_CONTEXT(
'Core Data for Automotive Mechanical Design Process');
#479=PRODUCT_CONTEXT('part definition',#478,'mechanical');
#480=PRODUCT('Pocket_v01',
'01_Closed Pocket_planar floor, internal fillets, NO floor fillets_v01',
$,(#479));
#481=PRESENTATION_STYLE_ASSIGNMENT((#482));
#482=SURFACE_STYLE_USAGE(.BOTH.,#485);
#483=SURFACE_STYLE_RENDERING_WITH_PROPERTIES($,#489,(#484));
#484=SURFACE_STYLE_TRANSPARENT(0.);
#485=SURFACE_SIDE_STYLE('',(#486,#483));
#486=SURFACE_STYLE_FILL_AREA(#487);
#487=FILL_AREA_STYLE('',(#488));
#488=FILL_AREA_STYLE_COLOUR('',#489);
#489=COLOUR_RGB('',0.749019607843137,0.749019607843137,0.749019607843137);
ENDSEC;
END-ISO-10303-21;
